/* XPM */
static const char *file_link[]={
"16 16 6 1",
". c None",
"# c #808080",
"d c #008000",
"b c #c3c3c3",
"c c #000000",
"a c #ffffff",
".#########......",
".#aaaaaaab#.....",
".#aaaaaaaba#....",
".#aaaaaaacccc...",
".#aaaaaaaaabc...",
".#aaaaaaaaabc...",
".#aaaaaaaaabc...",
".#aaaaaaaaabc...",
".#aaaaaaaaabc...",
".#aaaaddddabc...",
".#aaaadddaabc...",
".#aaaaddddabc...",
".#aaaadaaddbc...",
".#bbbbbbbbbbc...",
".cccccccccccc...",
"................"};
