/* XPM */
static const char*folder_lock[]={
"16 16 10 1",
". c None",
"h c #808080",
"f c #ffc080",
"d c #c0c000",
"# c #808000",
"a c #000000",
"e c #ff8000",
"c c #fffe9a",
"g c #303030",
"b c #ffffff",
"................",
"................",
"..#####a........",
".#bbbcc#d.......",
"#dddddd#aaa###..",
"#bbbbbbceeeccda.",
"#bcccccceeecfda.",
"#bcccccgghggcda.",
"#bcccccgehegfda.",
"#bcccccgehegcda.",
"#bcccccgggggfda.",
"#bcccfcceeecfda.",
"#bfcfcfceeecfda.",
"#dddddddeeeddda.",
".aaaaaaaaaaaaaa.",
"................"};
