/* XPM */
static const char *folder_link[]={
"16 16 8 1",
". c None",
"e c #ffc080",
"f c #008000",
"d c #c0c000",
"# c #808000",
"a c #000000",
"c c #fffe9a",
"b c #ffffff",
"................",
"................",
"..#####a........",
".#bbbcc#a.......",
"#ddddddd######..",
"#bbbbbbbbbbbcda.",
"#bcccccccccceda.",
"#bcccccccececda.",
"#bcccccccceceda.",
"#bccccceffffcda.",
"#bccccccfffceda.",
"#bccceceffffeda.",
"#becececfceffda.",
"#ddddddddddddda.",
".aaaaaaaaaaaaaa.",
"................"};
