/* XPM */
static const char * folder_open[] = {
"16 16 7 1",
". c None",
"# c #808000",
"a c #000000",
"b c #ffffff",
"c c #fffe9a",
"d c #c0c000",
"e c #ffc080",
"................",
"................",
"...#####........",
"..#bbbbb#.......",
".#bcccccb######.",
".#bcccccccbbbbda",
".#bcccccccccccda",
"############dcda",
"#bccccccecedadda",
"#bcccceccecdadda",
".#bcccccecee#a#a",
".#bccececeeeda#a",
"..#bececeeeed#aa",
"..############aa",
"...aaaaaaaaaaaaa",
"................"};
