/* XPM */
static const char *folder_open[]={
"16 16 7 1",
". c None",
"d c #000000",
"# c #808000",
"c c #c0c000",
"e c #ffc080",
"b c #ffff00",
"a c #ffffff",
"................",
"................",
"...#####........",
"..#aaaaa#.......",
".#abbbbba######.",
".#abbbbbbbaaaacd",
".#abbbbbbbbbbbcd",
"############cbcd",
"#abbbbbbebecdccd",
"#abbbbebbebcdccd",
".#abbbbbebee#d#d",
".#abbebebeeecd#d",
"..#aebebeeeec#dd",
"..############dd",
"...ddddddddddddd",
"................"};
