/* XPM */
static const char *mounted[]={
"16 16 3 1",
". c None",
"# c #000000",
"a c #00cf00",
"................",
"................",
".....#####......",
"....#aaaaa#.....",
"...#aaaaaaa#....",
"..#aaaaaaaaa#...",
"..#aaaaaaaaa#...",
"..#aaaaaaaaa#...",
"..#aaaaaaaaa#...",
"..#aaaaaaaaa#...",
"...#aaaaaaa#....",
"....#aaaaa#.....",
".....#####......",
"................",
"................",
"................"};
