/* XPM */
static const char *package_open[]={
"16 16 8 1",
". c None",
"f c #00c000",
"d c #303030",
"# c #58a8ff",
"a c #808080",
"b c #a0a0a0",
"c c #ff0000",
"e c #ffff00",
".....########...",
"....a########aaa",
"...abccccccccdaa",
"..adbccccccccaea",
".afffffffffcaaea",
"adfffffffffaeaea",
"aaaaaaaaaaaeeaaa",
"aeeeeaeeeeaeeaea",
"aeeeeaeeeeaeaaea",
"aeeeeaeeeeaaeaea",
"aaaaaaaaaaaeeaa.",
"aeeeeaeeeeaeea..",
"aeeeeaeeeeaea...",
"aeeeeaeeeeaa....",
"aaaaaaaaaaa.....",
"................"};
