/* XPM */
static const char *prev[]={
"20 20 4 1",
". c None",
"a c #0000c0",
"c c #0000ff",
"# c #303030",
"....................",
"....................",
"........#...........",
".......#a...........",
"......#a............",
".....#ac............",
"....#a...##########.",
"...#acc..aaaaaaaaa..",
"..#accc..cccccccc...",
".#acccc..cccccccc...",
"..#accc..cccccccc...",
"...#acc..aaaaaaaaa..",
"....#a...##########.",
".....#ac............",
"......#a............",
".......#a...........",
"........#...........",
"....................",
"....................",
"...................."};
