/* XPM */
static const char *root[]={
"20 20 8 1",
". c None",
"b c None",
"d c #008000",
"c c #00c000",
"e c #303030",
"# c #404000",
"a c #6d5c51",
"f c #e2ecfb",
"....................",
".......#a.a.a#......",
".......#aaaaa#......",
".......#aaaaa#......",
"b.bbbbb#aaaaa#bbbb.b",
"b.bbbbb#aaaaa#bbbb.b",
"cccccbb#aaaaa#bbcccc",
"ccccc#aa#####aa#cccc",
"dddddeeeeeeeeeeedddd",
"fffffff#######ffffff",
"ffffff##f###f##fffff",
"fffff###ff##f###ff##",
"f######ff##fff#####f",
"ffff###fff##ff###fff",
"fff##f#ff##fff#f##ff",
"ff#fff#f#f##ff#ff##f",
"ffff###ff##f#f##ffff",
"fff##fff###fffff#fff",
"fff#fff#ff###fffffff",
"ffffff#fffff#fffffff"};
